{
  "$schema": "https://raw.githubusercontent.com/jetify-com/devbox/0.10.5/.schema/devbox.schema.json",
  "packages": [
    "hugo@latest",
    "git@latest",
    "nodejs@latest",
    "pre-commit",
    "emacs",
    "openssh@latest",
    "which@latest",
    "neovim@latest",
    "hunspell@latest",
    "gnused",
    "gnugrep",
    "delta@latest",
    "uv@latest",
  ],
  "env": {
    "TMUX": "1",
  },
  "shell": {
    "init_hook": [
      "if [ ! -f src/themes/hextra/theme.toml ]; then git submodule init && git submodule update; fi",
      "git submodule update",
      "npm install --silence @divriots/jampack",
      "pre-commit install",
    ],
    "scripts": {
      "server": [
        "cd src; hugo server --disableFastRender -D",
      ],
      "hugo": [
        "cd src; hugo",
      ],
      "build": [
        "cd src; rm -rf public && hugo $* && npx @divriots/jampack public --nocache",
      ],
      "check-spelling": [
        "./spellchecker/check_spelling.sh $(find src/content -name '*.md')",
      ],
      "send-announcement": [
        "uv run send_event_announcement_email.py $1"
      ],
      "create-event": [
        "uv run create_event_scaffold.py $*"
      ],
    },
  },
}
